Billboard Music Trends Across the Decades
…
groovyjamz%>%summarize_all(n_distinct)

## # A tibble: 1 x 25
##   year.x artist_name artist_id explicit track_name track_id danceability energy
##    <int>       <int>     <int>    <int>      <int>    <int>        <int>  <int>
## 1     56        1261      1262        2       2347     2511          626    742
## # … with 17 more variables: key <int>, loudness <int>, mode <int>,
## #   speechiness <int>, acousticness <int>, instrumentalness <int>,
## #   liveness <int>, valence <int>, tempo <int>, type <int>, uri <int>,
## #   track_href <int>, analysis_url <int>, duration_ms <int>,
## #   time_signature <int>, no <int>, year.y <int>

groovyjamz %>% filter(complete.cases(groovyjamz))

## # A tibble: 2,781 x 25
##    year.x artist_name artist_id explicit track_name track_id danceability energy
##    <chr>  <chr>       <chr>     <lgl>    <chr>      <chr>           <dbl>  <dbl>
##  1 1960   Jim Reeves  2Ev0e8GU… FALSE    He'll Hav… 7DH5dXV…        0.554  0.186
##  2 1960   Johnny Pre… 1B8n8vtE… FALSE    Running B… 60DbxCJ…        0.758  0.462
##  3 1960   Mark Dinni… 55Rf9Kfq… FALSE    Teen Angel 7GvhZ0F…        0.583  0.168
##  4 1960   Jimmy Jones 7ydcRbgt… FALSE    Handy Man  0X6Nnkf…        0.534  0.72 
##  5 1960   Elvis Pres… 43ZHCT0c… FALSE    Stuck on … 6RLOZGY…        0.664  0.539
##  6 1960   Connie Fra… 3EY5DxGd… FALSE    Everybody… 6jdONXt…        0.587  0.72 
##  7 1960   The Brothe… 0nd3tsqH… FALSE    Greenfiel… 7F3R0rK…        0.485  0.182
##  8 1960   Marty Robb… 0Xi59sEw… FALSE    El Paso    4f8hBeM…        0.654  0.452
##  9 1960   Connie Ste… 5dg9jB2s… FALSE    Sixteen R… 0oI0ekr…        0.339  0.406
## 10 1960   Paul Anka   7ceUfdWq… FALSE    Puppy Love 1wkIJld…        0.346  0.348
## # … with 2,771 more rows, and 17 more variables: key <int>, loudness <dbl>,
## #   mode <int>, speechiness <dbl>, acousticness <dbl>, instrumentalness <dbl>,
## #   liveness <dbl>, valence <dbl>, tempo <dbl>, type <chr>, uri <chr>,
## #   track_href <chr>, analysis_url <chr>, duration_ms <int>,
## #   time_signature <int>, no <chr>, year.y <chr>
…
groovyjamz_new%>% add_count(artist_name)

## # A tibble: 2,781 x 26
##    decade artist_name artist_id explicit track_name track_id danceability energy
##    <chr>  <chr>       <chr>     <lgl>    <chr>      <chr>           <dbl>  <dbl>
##  1 1960s  Jim Reeves  2Ev0e8GU… FALSE    He'll Hav… 7DH5dXV…        0.554  0.186
##  2 1960s  Johnny Pre… 1B8n8vtE… FALSE    Running B… 60DbxCJ…        0.758  0.462
##  3 1960s  Mark Dinni… 55Rf9Kfq… FALSE    Teen Angel 7GvhZ0F…        0.583  0.168
##  4 1960s  Jimmy Jones 7ydcRbgt… FALSE    Handy Man  0X6Nnkf…        0.534  0.72 
##  5 1960s  Elvis Pres… 43ZHCT0c… FALSE    Stuck on … 6RLOZGY…        0.664  0.539
##  6 1960s  Connie Fra… 3EY5DxGd… FALSE    Everybody… 6jdONXt…        0.587  0.72 
##  7 1960s  The Brothe… 0nd3tsqH… FALSE    Greenfiel… 7F3R0rK…        0.485  0.182
##  8 1960s  Marty Robb… 0Xi59sEw… FALSE    El Paso    4f8hBeM…        0.654  0.452
##  9 1960s  Connie Ste… 5dg9jB2s… FALSE    Sixteen R… 0oI0ekr…        0.339  0.406
## 10 1960s  Paul Anka   7ceUfdWq… FALSE    Puppy Love 1wkIJld…        0.346  0.348
## # … with 2,771 more rows, and 18 more variables: key <int>, loudness <dbl>,
## #   mode <int>, speechiness <dbl>, acousticness <dbl>, instrumentalness <dbl>,
## #   liveness <dbl>, valence <dbl>, tempo <dbl>, type <chr>, uri <chr>,
## #   track_href <chr>, analysis_url <chr>, duration_ms <int>,
## #   time_signature <int>, no <chr>, year.y <chr>, n <int>

groovyjamz_new %>% add_count(artist_name) %>% filter(no <= 10) %>%arrange(desc(year.y))%>%select(decade,no,everything()) 

## # A tibble: 46 x 26
##    decade no    artist_name artist_id explicit track_name track_id danceability
##    <chr>  <chr> <chr>       <chr>     <lgl>    <chr>      <chr>           <dbl>
##  1 2010s  10    Katy Perry  6jJ0s89e… FALSE    Roar       3XSczvk…        0.667
##  2 2010s  10    Katy Perry  6jJ0s89e… FALSE    Roar       3bDGwl0…        0.56 
##  3 2010s  10    One Direct… 4AK6F7OL… FALSE    What Make… 3SPDQfj…        0.729
##  4 2010s  1     Adele       4dpARuHx… FALSE    Rolling i… 1CkvWZm…        0.729
##  5 2010s  1     Adele       4dpARuHx… FALSE    Rolling i… 1CkvWZm…        0.729
##  6 2000s  1     The Black … 1yxSLGMD… FALSE    Boom Boom… 7xRNsqO…        0.869
##  7 2000s  10    The All-Am… 3vAaWhdB… FALSE    Gives You… 6ihL9Tj…        0.714
##  8 2000s  10    Chris Brown 7bXgB6jM… FALSE    Forever    7tAXHZd…        0.672
##  9 2000s  1     Beyoncé     6vWDO969… FALSE    Irreplace… 1G7DcLz…        0.576
## 10 2000s  1     Daniel Pow… 7xTcuBOI… FALSE    Bad Day    0mUyMaw…        0.599
## # … with 36 more rows, and 18 more variables: energy <dbl>, key <int>,
## #   loudness <dbl>, mode <int>, speechiness <dbl>, acousticness <dbl>,
## #   instrumentalness <dbl>, liveness <dbl>, valence <dbl>, tempo <dbl>,
## #   type <chr>, uri <chr>, track_href <chr>, analysis_url <chr>,
## #   duration_ms <int>, time_signature <int>, year.y <chr>, n <int>
…
4. Visualizing (30 pts)

cormat <- groovyjamz_new %>% select_if(is.numeric) %>% cor(use="pair")
tidycor <- cormat %>% as.data.frame %>% rownames_to_column("var1") %>%
  pivot_longer(-1,names_to="var2",values_to="correlation")
tidycor

## # A tibble: 169 x 3
##    var1         var2             correlation
##    <chr>        <chr>                  <dbl>
##  1 danceability danceability          1     
##  2 danceability energy                0.194 
##  3 danceability key                   0.0312
##  4 danceability loudness              0.0742
##  5 danceability mode                 -0.180 
##  6 danceability speechiness           0.218 
##  7 danceability acousticness         -0.263 
##  8 danceability instrumentalness      0.0276
##  9 danceability liveness             -0.114 
## 10 danceability valence               0.488 
## # … with 159 more rows
…
