Leukemia Project 2: Modeling, Testing, and Predicting
…
table(prediction = as.numeric(prob > 0.5))

## prediction
##  0 
## 51

Leukemia4 <- Leukemia1 %>% mutate(prob = predict(fit6, type = "response"), prediction = ifelse(prob > 
                                                                                         0.5, 1, 0))
classify <- Leukemia4 %>% transmute(prob, prediction, 
                                  truth = Status)
classify

## # A tibble: 51 x 3
##      prob prediction truth
##     <dbl>      <dbl> <dbl>
##  1 0.147           0     0
##  2 0.0969          0     1
##  3 0.0871          0     0
##  4 0.0969          0     0
##  5 0.239           0     0
##  6 0.157           0     0
##  7 0.203           0     0
##  8 0.117           0     1
##  9 0.122           0     1
## 10 0.0780          0     0
## # … with 41 more rows
…
